<?xml version="1.0" encoding="UTF-8"?>
<session version="1.0">
<refactoring comment="Rename Java project &apos;zadace&apos; to &apos;zadace-ferko&apos;&#x0A;- Original element: &apos;zadace&apos;&#x0A;- Renamed element: &apos;zadace&apos;&#x0A;- Update references to refactored element" description="Rename Java project &apos;zadace&apos;" flags="7" id="org.eclipse.jdt.ui.rename.java.project" input="=zadace" name="zadace-ferko" references="true" stamp="1479306218092" version="1.0"/>
</session>